%YAML 1.1
%TAG !u! tag:unity3d.com,2011:
--- !u!114 &11400000
MonoBehaviour:
  m_ObjectHideFlags: 0
  m_CorrespondingSourceObject: {fileID: 0}
  m_PrefabInstance: {fileID: 0}
  m_PrefabAsset: {fileID: 0}
  m_GameObject: {fileID: 0}
  m_Enabled: 1
  m_EditorHideFlags: 0
  m_Script: {fileID: 11500000, guid: ef3a0551c63d4192b7f3888454079a94, type: 3}
  m_Name: Sparrow
  m_EditorClassIdentifier: 
  serializationData:
    SerializedFormat: 2
    SerializedBytes: 
    ReferencedUnityObjects: []
    SerializedBytesString: 
    Prefab: {fileID: 0}
    PrefabModificationsReferencedUnityObjects: []
    PrefabModifications: []
    SerializationNodes: []
  Name: Sparrow
  Avatar: {fileID: 21300000, guid: 14f9c07bf3699de4f8170562784ae15d, type: 3}
  Description: "\u041E\u0445\u043E\u0442\u043D\u0438\u0446\u0430-\u0440\u0430\u0437\u0431\u043E\u0439\u043D\u0438\u0446\u0430"
  ColorId: {r: 0.98039216, g: 0.46666667, b: 0.5254902, a: 1}
  View: {fileID: 4819395962963277375, guid: 5edbc21ed68f0514990edef851bdb782, type: 3}
  GhostView: {fileID: 7067209159733953235, guid: e17e9d0b2152fbc45af6a2d901b90771, type: 3}
  HP: 200
  AP: 3
  Spells:
  - {fileID: 11400000, guid: 1feb61985af749349b7bc5a8f2a7555b, type: 2}
  - {fileID: 11400000, guid: ad50fe7c9f1acb14090ec48deeda9929, type: 2}
  - {fileID: 11400000, guid: 9e96f979777d503428e83e52828f2ed6, type: 2}
  - {fileID: 11400000, guid: 1c2191c441f21b1469b4dfa9538a63da, type: 2}
  - {fileID: 11400000, guid: 0c35a512ea0d1f448a95d188368c2cd4, type: 2}
  SpellAnimationsMap:
    m_Keys:
    - {fileID: 11400000, guid: 1feb61985af749349b7bc5a8f2a7555b, type: 2}
    - {fileID: 11400000, guid: ad50fe7c9f1acb14090ec48deeda9929, type: 2}
    - {fileID: 11400000, guid: 9e96f979777d503428e83e52828f2ed6, type: 2}
    - {fileID: 11400000, guid: 1c2191c441f21b1469b4dfa9538a63da, type: 2}
    - {fileID: 11400000, guid: 0c35a512ea0d1f448a95d188368c2cd4, type: 2}
    m_Values: 0000000001000000020000000300000004000000
