%YAML 1.1
%TAG !u! tag:unity3d.com,2011:
--- !u!21 &2100000
Material:
  serializedVersion: 6
  m_ObjectHideFlags: 0
  m_CorrespondingSourceObject: {fileID: 0}
  m_PrefabInstance: {fileID: 0}
  m_PrefabAsset: {fileID: 0}
  m_Name: ShockWave4
  m_Shader: {fileID: -6465566751694194690, guid: c54b5097403c7204dab66c94ca8f2252, type: 3}
  m_ShaderKeywords: 
  m_LightmapFlags: 4
  m_EnableInstancingVariants: 0
  m_DoubleSidedGI: 0
  m_CustomRenderQueue: 3100
  stringTagMap: {}
  disabledShaderPasses: []
  m_SavedProperties:
    serializedVersion: 3
    m_TexEnvs:
    - _Flow:
        m_Texture: {fileID: 2800000, guid: ff6d0479db5058f42878d15454bd3fc9, type: 3}
        m_Scale: {x: 1, y: 0.8}
        m_Offset: {x: 0, y: 0}
    - _MainTex:
        m_Texture: {fileID: 0}
        m_Scale: {x: 1, y: 1}
        m_Offset: {x: 0, y: 0}
    - _MainTexture:
        m_Texture: {fileID: 2800000, guid: c815ff65f7d115d49b3768f7647db1c1, type: 3}
        m_Scale: {x: 1, y: 1}
        m_Offset: {x: 0, y: 0}
    - _Mask:
        m_Texture: {fileID: 2800000, guid: 680ed321f94f60744a581c7a50bf07ba, type: 3}
        m_Scale: {x: 1, y: 1}
        m_Offset: {x: 0, y: 0}
    - _Noise:
        m_Texture: {fileID: 0}
        m_Scale: {x: 1, y: 1}
        m_Offset: {x: 0, y: 0}
    - _texcoord:
        m_Texture: {fileID: 0}
        m_Scale: {x: 1, y: 1}
        m_Offset: {x: 0, y: 0}
    - unity_Lightmaps:
        m_Texture: {fileID: 0}
        m_Scale: {x: 1, y: 1}
        m_Offset: {x: 0, y: 0}
    - unity_LightmapsInd:
        m_Texture: {fileID: 0}
        m_Scale: {x: 1, y: 1}
        m_Offset: {x: 0, y: 0}
    - unity_ShadowMasks:
        m_Texture: {fileID: 0}
        m_Scale: {x: 1, y: 1}
        m_Offset: {x: 0, y: 0}
    m_Floats:
    - _Emission: 4
    - _InvFade: 3
    - _NoiseOpacityLerp: 0
    - _Usedepth: 0
    m_Colors:
    - _DistortionSpeedXYPowerZ: {r: 0, g: 0.01, b: -0.44, a: 0}
    - _FlowTiling: {r: 1, g: 0.8, b: 0, a: 0}
    - _MainTexTiling: {r: 1, g: 1, b: 0, a: 0}
    - _MaskTiling: {r: 1, g: 1, b: 0, a: 0}
    - _NoiseSpeedXYPowerZ: {r: 0, g: 0, b: 1, a: 0}
    - _NoiseTiling: {r: 1, g: 1, b: 0, a: 0}
    - _TextureMove: {r: 0, g: 0, b: 0, a: 0}
    - _TintColor: {r: 1, g: 1, b: 1, a: 1}
  m_BuildTextureStacks: []
