%YAML 1.1
%TAG !u! tag:unity3d.com,2011:
--- !u!1 &4975239013503563030
GameObject:
  m_ObjectHideFlags: 0
  m_CorrespondingSourceObject: {fileID: 0}
  m_PrefabInstance: {fileID: 0}
  m_PrefabAsset: {fileID: 0}
  serializedVersion: 6
  m_Component:
  - component: {fileID: 4975239013503563025}
  - component: {fileID: 4975239013503563024}
  - component: {fileID: 4561797316790902465}
  - component: {fileID: 6639102065642145100}
  m_Layer: 5
  m_Name: StatusesPanel
  m_TagString: Untagged
  m_Icon: {fileID: 0}
  m_NavMeshLayer: 0
  m_StaticEditorFlags: 0
  m_IsActive: 1
--- !u!224 &4975239013503563025
RectTransform:
  m_ObjectHideFlags: 0
  m_CorrespondingSourceObject: {fileID: 0}
  m_PrefabInstance: {fileID: 0}
  m_PrefabAsset: {fileID: 0}
  m_GameObject: {fileID: 4975239013503563030}
  m_LocalRotation: {x: 0, y: 0, z: 0, w: 1}
  m_LocalPosition: {x: 0, y: 0, z: 0}
  m_LocalScale: {x: 1, y: 1, z: 1}
  m_Children: []
  m_Father: {fileID: 0}
  m_RootOrder: 0
  m_LocalEulerAnglesHint: {x: 0, y: 0, z: 0}
  m_AnchorMin: {x: 0, y: 0}
  m_AnchorMax: {x: 1, y: 0}
  m_AnchoredPosition: {x: 0, y: 0}
  m_SizeDelta: {x: 0, y: 0}
  m_Pivot: {x: 0.5, y: 0}
--- !u!114 &4975239013503563024
MonoBehaviour:
  m_ObjectHideFlags: 0
  m_CorrespondingSourceObject: {fileID: 0}
  m_PrefabInstance: {fileID: 0}
  m_PrefabAsset: {fileID: 0}
  m_GameObject: {fileID: 4975239013503563030}
  m_Enabled: 1
  m_EditorHideFlags: 0
  m_Script: {fileID: 11500000, guid: 8a8695521f0d02e499659fee002a26c2, type: 3}
  m_Name: 
  m_EditorClassIdentifier: 
  m_Padding:
    m_Left: 0
    m_Right: 0
    m_Top: 0
    m_Bottom: 0
  m_ChildAlignment: 1
  m_StartCorner: 0
  m_StartAxis: 0
  m_CellSize: {x: 35, y: 35}
  m_Spacing: {x: 0, y: -7}
  m_Constraint: 1
  m_ConstraintCount: 2
--- !u!114 &4561797316790902465
MonoBehaviour:
  m_ObjectHideFlags: 0
  m_CorrespondingSourceObject: {fileID: 0}
  m_PrefabInstance: {fileID: 0}
  m_PrefabAsset: {fileID: 0}
  m_GameObject: {fileID: 4975239013503563030}
  m_Enabled: 1
  m_EditorHideFlags: 0
  m_Script: {fileID: 11500000, guid: 9dd072517e3648aca3a6ff4236e8a9ab, type: 3}
  m_Name: 
  m_EditorClassIdentifier: 
  _iconHolderRef: {fileID: 1554032592967369718, guid: 2b18122c8ff927c43abfbc3344086e7c, type: 3}
  _icons:
  - {fileID: 21300000, guid: 18a5aca8f5261a642b8fb603792141bb, type: 3}
  - {fileID: 21300000, guid: 9d207384e689fab4a9335dcb0b7e7682, type: 3}
  - {fileID: 21300000, guid: ddfff6d76dc31864a9603ecae4239272, type: 3}
  - {fileID: 21300000, guid: dc0eaf3f482bc3a4fa0d3e6c4a1389eb, type: 3}
  - {fileID: 21300000, guid: cab6705e97507b34b8d4d10a72fcacf9, type: 3}
  - {fileID: 21300000, guid: bb774a7fb0bd2e9499a08206bf3cc3b4, type: 3}
  - {fileID: 21300000, guid: ea2d96d0394f64943a2a5c0e4a6cd3c4, type: 3}
  - {fileID: 21300000, guid: 5e3369aab82ef7d4aa61c99aa1bf3006, type: 3}
  - {fileID: 21300000, guid: 81fbe1557af618d4da905905d005befc, type: 3}
  - {fileID: 21300000, guid: aa399771b5233744b975ce6f4910978e, type: 3}
  - {fileID: 21300000, guid: 4609c6f81de52e9469d87a5c34299b36, type: 3}
  - {fileID: 21300000, guid: c7f76fe2522336946a8cba5b30772e5f, type: 3}
  - {fileID: 21300000, guid: c6cc0eed015c3c14ca7ac09e0d38c01a, type: 3}
  - {fileID: 21300000, guid: 9b99007c91b0a424eb9fbc7fefa47925, type: 3}
  - {fileID: 21300000, guid: 6506903e1da4e0b42b033e02aeb3c465, type: 3}
  - {fileID: 21300000, guid: 225e903769b1da8458d535bf6cfc5ce6, type: 3}
  - {fileID: 21300000, guid: 103c383bdaaaa4549a0f6f8f2c0fa8ca, type: 3}
  - {fileID: 0}
--- !u!114 &6639102065642145100
MonoBehaviour:
  m_ObjectHideFlags: 0
  m_CorrespondingSourceObject: {fileID: 0}
  m_PrefabInstance: {fileID: 0}
  m_PrefabAsset: {fileID: 0}
  m_GameObject: {fileID: 4975239013503563030}
  m_Enabled: 1
  m_EditorHideFlags: 0
  m_Script: {fileID: 11500000, guid: aa584fbee541324448dd18d8409c7a41, type: 3}
  m_Name: 
  m_EditorClassIdentifier: 
  ObservedComponentsFoldoutOpen: 1
  Group: 0
  prefixField: -1
  Synchronization: 3
  OwnershipTransfer: 0
  observableSearch: 2
  ObservedComponents:
  - {fileID: 4561797316790902465}
  sceneViewId: 0
  InstantiationId: 0
  isRuntimeInstantiated: 0
