%YAML 1.1
%TAG !u! tag:unity3d.com,2011:
--- !u!221 &22100000
AnimatorOverrideController:
  m_ObjectHideFlags: 0
  m_CorrespondingSourceObject: {fileID: 0}
  m_PrefabInstance: {fileID: 0}
  m_PrefabAsset: {fileID: 0}
  m_Name: CornelloAnimator
  m_Controller: {fileID: 9100000, guid: be5e44a9f07ad9649ad99ca2a1d0ffcc, type: 2}
  m_Clips:
  - m_OriginalClip: {fileID: -203655887218126122, guid: 0374c4e631325534c8ed284593bfaff3, type: 3}
    m_OverrideClip: {fileID: -203655887218126122, guid: b0c3d6f6081d7364892f456f14077f30, type: 3}
  - m_OriginalClip: {fileID: -203655887218126122, guid: d379a072e05ec8242af3d47627188c08, type: 3}
    m_OverrideClip: {fileID: -203655887218126122, guid: 12a4bebf66aefa14ca090627b51748d2, type: 3}
  - m_OriginalClip: {fileID: 7400000, guid: 45a86df8f7e12024c8c2a83c5ea936fd, type: 2}
    m_OverrideClip: {fileID: -203655887218126122, guid: e41411b0145b351478bf7dfa6d48fdd9, type: 3}
  - m_OriginalClip: {fileID: 7400000, guid: fc0aff5508c9fba479049e779b97623f, type: 2}
    m_OverrideClip: {fileID: -203655887218126122, guid: 64aa6d0b475a5e24eaed577cbd48b759, type: 3}
  - m_OriginalClip: {fileID: 7400000, guid: dc063b2d0bb06024caa3e58234fca273, type: 2}
    m_OverrideClip: {fileID: -203655887218126122, guid: a012a9b3783504248b567dd904f08594, type: 3}
  - m_OriginalClip: {fileID: 7400000, guid: ef77a771d23d3054c9ded718b75e674c, type: 2}
    m_OverrideClip: {fileID: -203655887218126122, guid: 9d3d36206edd41d4e992929f739b6e5a, type: 3}
  - m_OriginalClip: {fileID: 7400000, guid: ae0fb8f6b4702ce40ac2db933ae67e0a, type: 2}
    m_OverrideClip: {fileID: -203655887218126122, guid: 62327f88f1975d744a7fffaa0ae7d90f, type: 3}
  - m_OriginalClip: {fileID: -203655887218126122, guid: a3fbd60b9721ccf4fafcbe2855dfc1d1, type: 3}
    m_OverrideClip: {fileID: -203655887218126122, guid: ac3fbcc5465efb845a8604c772985725, type: 3}
  - m_OriginalClip: {fileID: -203655887218126122, guid: c01be714e92cbbb4b95787e3c7624d28, type: 3}
    m_OverrideClip: {fileID: -203655887218126122, guid: 6f8e53388a2b6f442868763144c45152, type: 3}
  - m_OriginalClip: {fileID: -203655887218126122, guid: 2e1c2e962b28ea548952863750ced4dc, type: 3}
    m_OverrideClip: {fileID: -203655887218126122, guid: 7fba1e65a7ba1dc40a04471df80e4d2e, type: 3}
