%YAML 1.1
%TAG !u! tag:unity3d.com,2011:
--- !u!114 &11400000
MonoBehaviour:
  m_ObjectHideFlags: 0
  m_CorrespondingSourceObject: {fileID: 0}
  m_PrefabInstance: {fileID: 0}
  m_PrefabAsset: {fileID: 0}
  m_GameObject: {fileID: 0}
  m_Enabled: 1
  m_EditorHideFlags: 0
  m_Script: {fileID: 11500000, guid: d764d5a4a68446df9931eccbb73edc69, type: 3}
  m_Name: EnemySelectedTile
  m_EditorClassIdentifier: 
  m_Sprite: {fileID: 3328723554457178235, guid: a705f878ce84fd84da3925d984adac04, type: 3}
  m_Color: {r: 1, g: 1, b: 1, a: 1}
  m_Transform:
    e00: 1
    e01: 0
    e02: 0
    e03: 0
    e10: 0
    e11: 1
    e12: 0
    e13: 0
    e20: 0
    e21: 0
    e22: 1
    e23: 0
    e30: 0
    e31: 0
    e32: 0
    e33: 1
  m_InstancedGameObject: {fileID: 2442400561697108284, guid: 727bd5026fe2e3e44adc9d083732dd8a, type: 3}
  m_Flags: 1
  m_ColliderType: 1
  IsPlayerTile: 0
  IsSelectedTile: 1
