%YAML 1.1
%TAG !u! tag:unity3d.com,2011:
--- !u!114 &11400000
MonoBehaviour:
  m_ObjectHideFlags: 0
  m_CorrespondingSourceObject: {fileID: 0}
  m_PrefabInstance: {fileID: 0}
  m_PrefabAsset: {fileID: 0}
  m_GameObject: {fileID: 0}
  m_Enabled: 1
  m_EditorHideFlags: 0
  m_Script: {fileID: 11500000, guid: d764d5a4a68446df9931eccbb73edc69, type: 3}
  m_Name: PlayerSelectedTile
  m_EditorClassIdentifier: 
  m_Sprite: {fileID: -8113797369288473612, guid: a705f878ce84fd84da3925d984adac04, type: 3}
  m_Color: {r: 1, g: 1, b: 1, a: 1}
  m_Transform:
    e00: 1
    e01: 0
    e02: 0
    e03: 0
    e10: 0
    e11: 1
    e12: 0
    e13: 0
    e20: 0
    e21: 0
    e22: 1
    e23: 0
    e30: 0
    e31: 0
    e32: 0
    e33: 1
  m_InstancedGameObject: {fileID: 7343374377091633834, guid: 685dd7f1e093d084186cb991577659d2, type: 3}
  m_Flags: 1
  m_ColliderType: 1
  IsPlayerTile: 1
  IsSelectedTile: 1
