%YAML 1.1
%TAG !u! tag:unity3d.com,2011:
--- !u!114 &11400000
MonoBehaviour:
  m_ObjectHideFlags: 0
  m_CorrespondingSourceObject: {fileID: 0}
  m_PrefabInstance: {fileID: 0}
  m_PrefabAsset: {fileID: 0}
  m_GameObject: {fileID: 0}
  m_Enabled: 1
  m_EditorHideFlags: 0
  m_Script: {fileID: 11500000, guid: 39b1bcef867341e38cc022a85ce19002, type: 3}
  m_Name: MindBreakSpell
  m_EditorClassIdentifier: 
  serializationData:
    SerializedFormat: 2
    SerializedBytes: 
    ReferencedUnityObjects:
    - {fileID: 21300000, guid: 6506903e1da4e0b42b033e02aeb3c465, type: 3}
    - {fileID: -9212075911465052616, guid: 627b7dbe59697294d9c8769605f9cc96, type: 3}
    SerializedBytesString: 
    Prefab: {fileID: 0}
    PrefabModificationsReferencedUnityObjects: []
    PrefabModifications: []
    SerializationNodes:
    - Name: StatusEffectIcons
      Entry: 7
      Data: 0|SpellConfig+StatusIcon, Assembly-CSharp
    - Name: IconForSelf
      Entry: 6
      Data: 
    - Name: IconForOthers
      Entry: 10
      Data: 0
    - Name: 
      Entry: 8
      Data: 
    - Name: Executor
      Entry: 7
      Data: 1|SpellExecutor, Assembly-CSharp
    - Name: _spellFxCreator
      Entry: 7
      Data: 2|BaseSpellFXCreator, Assembly-CSharp
    - Name: UsePositionInKey
      Entry: 5
      Data: false
    - Name: _invisibleForEnemies
      Entry: 5
      Data: false
    - Name: _actorIsContainer
      Entry: 5
      Data: false
    - Name: _placementType
      Entry: 3
      Data: 0
    - Name: _spellFxUnitRef
      Entry: 10
      Data: 1
    - Name: _secondaryFxUnitRef
      Entry: 6
      Data: 
    - Name: 
      Entry: 8
      Data: 
    - Name: _statusEffectExecutor
      Entry: 7
      Data: 3|StatusEffectExecutor, Assembly-CSharp
    - Name: _actor
      Entry: 6
      Data: 
    - Name: _targets
      Entry: 7
      Data: 4|Selectors.TargetsSelector, Assembly-CSharp
    - Name: _targetType
      Entry: 3
      Data: 2
    - Name: _inAoeArea
      Entry: 5
      Data: true
    - Name: _exclude
      Entry: 6
      Data: 
    - Name: 
      Entry: 8
      Data: 
    - Name: _applyByCondition
      Entry: 5
      Data: false
    - Name: 
      Entry: 8
      Data: 
    - Name: _animationDelay
      Entry: 4
      Data: 0
    - Name: _spellActions
      Entry: 7
      Data: 5|System.Collections.Generic.List`1[[SpellActions+ISpellAction, Assembly-CSharp]],
        mscorlib
    - Name: 
      Entry: 12
      Data: 1
    - Name: 
      Entry: 7
      Data: 6|SpellActions+SpellsRestrictionAction, Assembly-CSharp
    - Name: ApplyDelay
      Entry: 4
      Data: 0
    - Name: _actors
      Entry: 7
      Data: 7|Selectors.TargetsSelector, Assembly-CSharp
    - Name: _targetType
      Entry: 3
      Data: 3
    - Name: _inAoeArea
      Entry: 5
      Data: true
    - Name: _exclude
      Entry: 6
      Data: 
    - Name: 
      Entry: 8
      Data: 
    - Name: _duration
      Entry: 3
      Data: 1
    - Name: _useProbability
      Entry: 5
      Data: false
    - Name: _probability
      Entry: 4
      Data: 0
    - Name: 
      Entry: 8
      Data: 
    - Name: 
      Entry: 13
      Data: 
    - Name: 
      Entry: 8
      Data: 
    - Name: 
      Entry: 8
      Data: 
  Icon: {fileID: 21300000, guid: 711b7d793d06eb7479c891bbd23aed90, type: 3}
  Name: Mind Break
  Owner: {fileID: 11400000, guid: 1d5a95f1f10b0004eb2c6b5f5849d67a, type: 2}
  Description: "\u041E\u0433\u043B\u0443\u0448\u0430\u0435\u0442 \u043F\u0440\u043E\u0442\u0438\u0432\u043D\u0438\u043A\u0430
    \u041F\u0415\u0420\u0415\u0414 \u0435\u0433\u043E \u0434\u0435\u0439\u0441\u0442\u0432\u0438\u0435\u043C
    (\u043F\u043E \u0441\u0443\u0442\u0438 \u043E\u0442\u043C\u0435\u043D\u044F\u0435\u0442
    \u0435\u0433\u043E \u0434\u0435\u0439\u0441\u0442\u0432\u0438\u0435 \u0432 \u044D\u0442\u043E\u043C
    \u0445\u043E\u0434\u0443). \u0414\u0435\u0439\u0441\u0442\u0432\u0443\u0435\u0442
    \u043D\u0430 \u043E\u0434\u043D\u043E\u0433\u043E \u0441\u043B\u0443\u0447\u0430\u0439\u043D\u043E\u0433\u043E
    \u0433\u0435\u0440\u043E\u044F \u0432 \u043E\u0431\u043B\u0430\u0441\u0442\u0438"
  ExecuteType: 1
  Cooldown: 3
  AOESettings:
    Icon: {fileID: 21300000, guid: d1e2225d4a5715b468d9a2c539423bfc, type: 3}
    Layout: {fileID: -3010229783382251720, guid: 2c81a22436b943a4993cc82c6c615981, type: 3}
    PlacementArea: 1
    AllowedPlacementOn: 0
    IsRandom: 0
    CountOnPlayerField: 0
    CountOnEnemyField: 0
    CellRef: {fileID: 3242356318692693192, guid: 4209bb3c494a8fd448fd73311f97f077, type: 3}
    AdditionalAreaOnOppositeSide:
      Layout: {fileID: 0}
      IsRandom: 0
      Count: 0
