%YAML 1.1
%TAG !u! tag:unity3d.com,2011:
--- !u!114 &11400000
MonoBehaviour:
  m_ObjectHideFlags: 0
  m_CorrespondingSourceObject: {fileID: 0}
  m_PrefabInstance: {fileID: 0}
  m_PrefabAsset: {fileID: 0}
  m_GameObject: {fileID: 0}
  m_Enabled: 1
  m_EditorHideFlags: 0
  m_Script: {fileID: 11500000, guid: 39b1bcef867341e38cc022a85ce19002, type: 3}
  m_Name: SuppressPresenceSpell
  m_EditorClassIdentifier: 
  serializationData:
    SerializedFormat: 2
    SerializedBytes: 
    ReferencedUnityObjects:
    - {fileID: 21300000, guid: cab6705e97507b34b8d4d10a72fcacf9, type: 3}
    - {fileID: -2464281928005607554, guid: 0b185ba5939e43849bd26c4cc43ad95e, type: 3}
    SerializedBytesString: 
    Prefab: {fileID: 0}
    PrefabModificationsReferencedUnityObjects: []
    PrefabModifications: []
    SerializationNodes:
    - Name: StatusEffectIcons
      Entry: 7
      Data: 0|SpellConfig+StatusIcon, Assembly-CSharp
    - Name: IconForSelf
      Entry: 10
      Data: 0
    - Name: IconForOthers
      Entry: 6
      Data: 
    - Name: 
      Entry: 8
      Data: 
    - Name: Executor
      Entry: 7
      Data: 1|SpellExecutor, Assembly-CSharp
    - Name: _spellFxCreator
      Entry: 7
      Data: 2|BaseSpellFXCreator, Assembly-CSharp
    - Name: UsePositionInKey
      Entry: 5
      Data: false
    - Name: _invisibleForEnemies
      Entry: 5
      Data: false
    - Name: _actorIsContainer
      Entry: 5
      Data: false
    - Name: _placementType
      Entry: 3
      Data: 0
    - Name: _spellFxUnitRef
      Entry: 10
      Data: 1
    - Name: _secondaryFxUnitRef
      Entry: 6
      Data: 
    - Name: 
      Entry: 8
      Data: 
    - Name: _statusEffectExecutor
      Entry: 7
      Data: 3|StatusEffectExecutor, Assembly-CSharp
    - Name: _actor
      Entry: 7
      Data: 4|Selectors.TargetsSelector, Assembly-CSharp
    - Name: _targetType
      Entry: 3
      Data: 0
    - Name: _inAoeArea
      Entry: 5
      Data: true
    - Name: _exclude
      Entry: 6
      Data: 
    - Name: 
      Entry: 8
      Data: 
    - Name: _targets
      Entry: 6
      Data: 
    - Name: _applyByCondition
      Entry: 5
      Data: false
    - Name: 
      Entry: 8
      Data: 
    - Name: _animationDelay
      Entry: 4
      Data: 0
    - Name: _spellActions
      Entry: 7
      Data: 5|System.Collections.Generic.List`1[[SpellActions+ISpellAction, Assembly-CSharp]],
        mscorlib
    - Name: 
      Entry: 12
      Data: 3
    - Name: 
      Entry: 7
      Data: 6|SpellActions+InvisibilityAction, Assembly-CSharp
    - Name: ApplyDelay
      Entry: 4
      Data: 0
    - Name: _actor
      Entry: 7
      Data: 7|Selectors.TargetsSelector, Assembly-CSharp
    - Name: _targetType
      Entry: 3
      Data: 0
    - Name: _inAoeArea
      Entry: 5
      Data: true
    - Name: _exclude
      Entry: 6
      Data: 
    - Name: 
      Entry: 8
      Data: 
    - Name: _duration
      Entry: 3
      Data: 3
    - Name: _invisibilityMode
      Entry: 3
      Data: 1
    - Name: _endCondition
      Entry: 3
      Data: 1
    - Name: ShowStatusesDuringInvisibility
      Entry: 5
      Data: false
    - Name: 
      Entry: 8
      Data: 
    - Name: 
      Entry: 7
      Data: 8|SpellActions+DamageModifierAction, Assembly-CSharp
    - Name: ApplyDelay
      Entry: 4
      Data: 0
    - Name: _actors
      Entry: 7
      Data: 9|Selectors.TargetsSelector, Assembly-CSharp
    - Name: _targetType
      Entry: 3
      Data: 0
    - Name: _inAoeArea
      Entry: 5
      Data: true
    - Name: _exclude
      Entry: 6
      Data: 
    - Name: 
      Entry: 8
      Data: 
    - Name: _duration
      Entry: 3
      Data: 3
    - Name: ValueType
      Entry: 3
      Data: 0
    - Name: _percent
      Entry: 4
      Data: 0.3
    - Name: _value
      Entry: 3
      Data: 0
    - Name: _damageType
      Entry: 3
      Data: 3
    - Name: _endCondition
      Entry: 3
      Data: 1
    - Name: 
      Entry: 8
      Data: 
    - Name: 
      Entry: 7
      Data: 10|SpellActions+SupressPresenceAction, Assembly-CSharp
    - Name: ApplyDelay
      Entry: 4
      Data: 0
    - Name: _duration
      Entry: 3
      Data: 3
    - Name: 
      Entry: 8
      Data: 
    - Name: 
      Entry: 13
      Data: 
    - Name: 
      Entry: 8
      Data: 
    - Name: 
      Entry: 8
      Data: 
  Icon: {fileID: 21300000, guid: bb3ff99df3b701147b4c6f8690b4f0c5, type: 3}
  Name: Suppress Presence
  Owner: {fileID: 11400000, guid: 9aec94971b89d4147bbaa14176811227, type: 2}
  Description: "\u041F\u043E\u0432\u044B\u0448\u0430\u0435\u0442 \u0432\u0435\u0441\u044C
    \u043D\u0430\u043D\u043E\u0441\u0438\u043C\u044B\u0439 \u0443\u0440\u043E\u043D
    \u043D\u0430 30% \u0438 \u0441\u0442\u0430\u043D\u043E\u0432\u0438\u0442\u0441\u044F
    \u043D\u0435\u0432\u0438\u0434\u0438\u043C\u043E\u0439 \u0434\u043B\u044F \u043F\u0440\u043E\u0442\u0438\u0432\u043D\u0438\u043A\u0430
    \u043D\u0430 2 \u0445\u043E\u0434\u0430. \u041F\u043E\u043B\u0443\u0447\u0435\u043D\u0438\u0435
    \u0443\u0440\u043E\u043D\u0430 \u0441\u043D\u0438\u043C\u0430\u0435\u0442 \u0432\u0441\u0435
    \u044D\u0444\u0444\u0435\u043A\u0442\u044B"
  ExecuteType: 0
  Cooldown: 3
  AOESettings:
    Icon: {fileID: 21300000, guid: dd5b4f29305202a44b4bdd77c8fee6d3, type: 3}
    Layout: {fileID: -3010229783382251720, guid: 6ab234e505c72054b8909e6b81446e97, type: 3}
    PlacementArea: 3
    AllowedPlacementOn: 0
    IsRandom: 0
    CountOnPlayerField: 0
    CountOnEnemyField: 0
    CellRef: {fileID: 3242356318692693192, guid: 4209bb3c494a8fd448fd73311f97f077, type: 3}
    AdditionalAreaOnOppositeSide:
      Layout: {fileID: 0}
      IsRandom: 0
      Count: 0
