%YAML 1.1
%TAG !u! tag:unity3d.com,2011:
--- !u!114 &11400000
MonoBehaviour:
  m_ObjectHideFlags: 0
  m_CorrespondingSourceObject: {fileID: 0}
  m_PrefabInstance: {fileID: 0}
  m_PrefabAsset: {fileID: 0}
  m_GameObject: {fileID: 0}
  m_Enabled: 1
  m_EditorHideFlags: 0
  m_Script: {fileID: 11500000, guid: 39b1bcef867341e38cc022a85ce19002, type: 3}
  m_Name: FlyingHollanderSpell
  m_EditorClassIdentifier: 
  serializationData:
    SerializedFormat: 2
    SerializedBytes: 
    ReferencedUnityObjects:
    - {fileID: 21300000, guid: ddfff6d76dc31864a9603ecae4239272, type: 3}
    - {fileID: 2735117147576170813, guid: b3cc6f5ddb1ec23449cb78d88e98ac5d, type: 3}
    SerializedBytesString: 
    Prefab: {fileID: 0}
    PrefabModificationsReferencedUnityObjects: []
    PrefabModifications: []
    SerializationNodes:
    - Name: StatusEffectIcons
      Entry: 7
      Data: 0|SpellConfig+StatusIcon, Assembly-CSharp
    - Name: IconForSelf
      Entry: 6
      Data: 
    - Name: IconForOthers
      Entry: 10
      Data: 0
    - Name: 
      Entry: 8
      Data: 
    - Name: Executor
      Entry: 7
      Data: 1|SpellExecutor, Assembly-CSharp
    - Name: _spellFxCreator
      Entry: 7
      Data: 2|BaseSpellFXCreator, Assembly-CSharp
    - Name: UsePositionInKey
      Entry: 5
      Data: false
    - Name: _invisibleForEnemies
      Entry: 5
      Data: false
    - Name: _actorIsContainer
      Entry: 5
      Data: false
    - Name: _placementType
      Entry: 3
      Data: 1
    - Name: _spellFxUnitRef
      Entry: 10
      Data: 1
    - Name: _secondaryFxUnitRef
      Entry: 6
      Data: 
    - Name: 
      Entry: 8
      Data: 
    - Name: _statusEffectExecutor
      Entry: 7
      Data: 3|StatusEffectExecutor, Assembly-CSharp
    - Name: _actor
      Entry: 6
      Data: 
    - Name: _targets
      Entry: 7
      Data: 4|Selectors.TargetsSelector, Assembly-CSharp
    - Name: _targetType
      Entry: 3
      Data: 2
    - Name: _inAoeArea
      Entry: 5
      Data: true
    - Name: _exclude
      Entry: 6
      Data: 
    - Name: 
      Entry: 8
      Data: 
    - Name: _applyByCondition
      Entry: 5
      Data: false
    - Name: 
      Entry: 8
      Data: 
    - Name: _animationDelay
      Entry: 4
      Data: 0
    - Name: _spellActions
      Entry: 7
      Data: 5|System.Collections.Generic.List`1[[SpellActions+ISpellAction, Assembly-CSharp]],
        mscorlib
    - Name: 
      Entry: 12
      Data: 2
    - Name: 
      Entry: 7
      Data: 6|SpellActions+DamageAtAreaAction, Assembly-CSharp
    - Name: ApplyDelay
      Entry: 4
      Data: 0
    - Name: _targets
      Entry: 7
      Data: 7|Selectors.TargetsSelector, Assembly-CSharp
    - Name: _targetType
      Entry: 3
      Data: 2
    - Name: _inAoeArea
      Entry: 5
      Data: true
    - Name: _exclude
      Entry: 6
      Data: 
    - Name: 
      Entry: 8
      Data: 
    - Name: _usePercentOfOwnDmg
      Entry: 5
      Data: false
    - Name: _multByNumberOfTargets
      Entry: 5
      Data: false
    - Name: _baseDamageRange
      Entry: 7
      Data: 8|SpellActions+RangeFloatSelector, Assembly-CSharp
    - Name: Min
      Entry: 4
      Data: 70
    - Name: Max
      Entry: 4
      Data: 70
    - Name: 
      Entry: 8
      Data: 
    - Name: _ownerTotalDmgPercent
      Entry: 4
      Data: 0
    - Name: _ignoreProtectiveEffects
      Entry: 5
      Data: false
    - Name: 
      Entry: 8
      Data: 
    - Name: 
      Entry: 7
      Data: 9|SpellActions+MovementRestrictionAction, Assembly-CSharp
    - Name: ApplyDelay
      Entry: 4
      Data: 0
    - Name: _targetSelector
      Entry: 7
      Data: 10|Selectors.TargetsSelector, Assembly-CSharp
    - Name: _targetType
      Entry: 3
      Data: 2
    - Name: _inAoeArea
      Entry: 5
      Data: true
    - Name: _exclude
      Entry: 6
      Data: 
    - Name: 
      Entry: 8
      Data: 
    - Name: Target
      Entry: 6
      Data: 
    - Name: Duration
      Entry: 3
      Data: 2
    - Name: DamageProRound
      Entry: 3
      Data: 0
    - Name: _useProbability
      Entry: 5
      Data: false
    - Name: _probability
      Entry: 4
      Data: 1
    - Name: 
      Entry: 8
      Data: 
    - Name: 
      Entry: 13
      Data: 
    - Name: 
      Entry: 8
      Data: 
    - Name: 
      Entry: 8
      Data: 
  Icon: {fileID: 21300000, guid: e5e95cab1e17fb74199f9535d7eb3d2f, type: 3}
  Name: Flying Hollander
  Owner: {fileID: 11400000, guid: 6798523b31f68df4cbdcac792e0c8f44, type: 2}
  Description: "\u041D\u0430\u043D\u043E\u0441\u0438\u0442 70 \u0443\u0440\u043E\u043D\u0430
    \u0432\u0441\u0435\u043C \u0432 \u043E\u0431\u043B\u0430\u0441\u0442\u0438 \u0438
    \u043E\u0431\u0435\u0437\u0434\u0432\u0438\u0436\u0438\u0432\u0430\u0435\u0442
    \u043D\u0430 \u0442\u0435\u0138\u0443\u0449\u0438\u0439 \u0438 \u0441\u043B\u0435\u0434\u0443\u044E\u0449\u0438\u0439
    \u0445\u043E\u0434."
  ExecuteType: 2
  Cooldown: 4
  AOESettings:
    Icon: {fileID: 21300000, guid: 60369f5a6deb3e64fa8b4e8e3e04122c, type: 3}
    Layout: {fileID: -3010229783382251720, guid: 296bbf3f5ab8dbc4d965a357e13ce662, type: 3}
    PlacementArea: 1
    AllowedPlacementOn: 0
    IsRandom: 0
    CountOnPlayerField: 0
    CountOnEnemyField: 0
    CellRef: {fileID: 3242356318692693192, guid: 4209bb3c494a8fd448fd73311f97f077, type: 3}
    AdditionalAreaOnOppositeSide:
      Layout: {fileID: 0}
      IsRandom: 0
      Count: 0
