%YAML 1.1
%TAG !u! tag:unity3d.com,2011:
--- !u!114 &11400000
MonoBehaviour:
  m_ObjectHideFlags: 0
  m_CorrespondingSourceObject: {fileID: 0}
  m_PrefabInstance: {fileID: 0}
  m_PrefabAsset: {fileID: 0}
  m_GameObject: {fileID: 0}
  m_Enabled: 1
  m_EditorHideFlags: 0
  m_Script: {fileID: 11500000, guid: 39b1bcef867341e38cc022a85ce19002, type: 3}
  m_Name: ReleaseTheKrakenSpell
  m_EditorClassIdentifier: 
  serializationData:
    SerializedFormat: 2
    SerializedBytes: 
    ReferencedUnityObjects:
    - {fileID: 21300000, guid: 225e903769b1da8458d535bf6cfc5ce6, type: 3}
    - {fileID: -3098987582362821856, guid: b8fb41f201f5f4448a8ab408b5647cc7, type: 3}
    SerializedBytesString: 
    Prefab: {fileID: 0}
    PrefabModificationsReferencedUnityObjects: []
    PrefabModifications: []
    SerializationNodes:
    - Name: StatusEffectIcons
      Entry: 7
      Data: 0|SpellConfig+StatusIcon, Assembly-CSharp
    - Name: IconForSelf
      Entry: 6
      Data: 
    - Name: IconForOthers
      Entry: 10
      Data: 0
    - Name: 
      Entry: 8
      Data: 
    - Name: Executor
      Entry: 7
      Data: 1|SpellExecutor, Assembly-CSharp
    - Name: _spellFxCreator
      Entry: 7
      Data: 2|BaseSpellFXCreator, Assembly-CSharp
    - Name: UsePositionInKey
      Entry: 5
      Data: false
    - Name: _invisibleForEnemies
      Entry: 5
      Data: false
    - Name: _actorIsContainer
      Entry: 5
      Data: false
    - Name: _placementType
      Entry: 3
      Data: 1
    - Name: _spellFxUnitRef
      Entry: 10
      Data: 1
    - Name: _secondaryFxUnitRef
      Entry: 6
      Data: 
    - Name: 
      Entry: 8
      Data: 
    - Name: _statusEffectExecutor
      Entry: 7
      Data: 3|StatusEffectExecutor, Assembly-CSharp
    - Name: _actor
      Entry: 6
      Data: 
    - Name: _targets
      Entry: 7
      Data: 4|Selectors.TargetsSelector, Assembly-CSharp
    - Name: _targetType
      Entry: 3
      Data: 2
    - Name: _inAoeArea
      Entry: 5
      Data: true
    - Name: _exclude
      Entry: 6
      Data: 
    - Name: 
      Entry: 8
      Data: 
    - Name: _applyByCondition
      Entry: 5
      Data: false
    - Name: 
      Entry: 8
      Data: 
    - Name: _animationDelay
      Entry: 4
      Data: 0
    - Name: _spellActions
      Entry: 7
      Data: 5|System.Collections.Generic.List`1[[SpellActions+ISpellAction, Assembly-CSharp]],
        mscorlib
    - Name: 
      Entry: 12
      Data: 2
    - Name: 
      Entry: 7
      Data: 6|SpellActions+DamageAtAreaAction, Assembly-CSharp
    - Name: ApplyDelay
      Entry: 4
      Data: 0
    - Name: _targets
      Entry: 7
      Data: 7|Selectors.TargetsSelector, Assembly-CSharp
    - Name: _targetType
      Entry: 3
      Data: 2
    - Name: _inAoeArea
      Entry: 5
      Data: true
    - Name: _exclude
      Entry: 6
      Data: 
    - Name: 
      Entry: 8
      Data: 
    - Name: _usePercentOfOwnDmg
      Entry: 5
      Data: false
    - Name: _multByNumberOfTargets
      Entry: 5
      Data: false
    - Name: _baseDamageRange
      Entry: 7
      Data: 8|SpellActions+RangeFloatSelector, Assembly-CSharp
    - Name: Min
      Entry: 4
      Data: 50
    - Name: Max
      Entry: 4
      Data: 50
    - Name: 
      Entry: 8
      Data: 
    - Name: _ownerTotalDmgPercent
      Entry: 4
      Data: 0
    - Name: _ignoreProtectiveEffects
      Entry: 5
      Data: false
    - Name: 
      Entry: 8
      Data: 
    - Name: 
      Entry: 7
      Data: 9|SpellActions+ActionPointsModifierAction, Assembly-CSharp
    - Name: ApplyDelay
      Entry: 4
      Data: 0
    - Name: _targets
      Entry: 7
      Data: 10|Selectors.TargetsSelector, Assembly-CSharp
    - Name: _targetType
      Entry: 3
      Data: 2
    - Name: _inAoeArea
      Entry: 5
      Data: true
    - Name: _exclude
      Entry: 6
      Data: 
    - Name: 
      Entry: 8
      Data: 
    - Name: _duration
      Entry: 3
      Data: 2
    - Name: _actionPointsCount
      Entry: 3
      Data: -1
    - Name: 
      Entry: 8
      Data: 
    - Name: 
      Entry: 13
      Data: 
    - Name: 
      Entry: 8
      Data: 
    - Name: 
      Entry: 8
      Data: 
  Icon: {fileID: 21300000, guid: 3b79feb58c8f10c4aaa8aff1e5c3b8b6, type: 3}
  Name: Release the Kraken!
  Owner: {fileID: 11400000, guid: 6798523b31f68df4cbdcac792e0c8f44, type: 2}
  Description: "\u041D\u0430\u043D\u043E\u0441\u0438\u0442 25-80 \u0443\u0440\u043E\u043D\u0430
    \u0432 AoE \u0438 \u043E\u0442\u0431\u0438\u0440\u0430\u0435\u0442 1 AP \u0443
    \u0432\u0441\u0435\u0445 \u0432 \u043E\u0431\u043B\u0430\u0441\u0442\u0438 \u043D\u0430
    1 \u0440\u0430\u0443\u043D\u0434"
  ExecuteType: 1
  Cooldown: 1
  AOESettings:
    Icon: {fileID: 21300000, guid: d1e2225d4a5715b468d9a2c539423bfc, type: 3}
    Layout: {fileID: -3010229783382251720, guid: 9b4b5206560a82d4bae7b3a5b5d5e21e, type: 3}
    PlacementArea: 1
    AllowedPlacementOn: 0
    IsRandom: 0
    CountOnPlayerField: 0
    CountOnEnemyField: 0
    CellRef: {fileID: 3242356318692693192, guid: 4209bb3c494a8fd448fd73311f97f077, type: 3}
    AdditionalAreaOnOppositeSide:
      Layout: {fileID: 0}
      IsRandom: 0
      Count: 0
