%YAML 1.1
%TAG !u! tag:unity3d.com,2011:
--- !u!114 &11400000
MonoBehaviour:
  m_ObjectHideFlags: 0
  m_CorrespondingSourceObject: {fileID: 0}
  m_PrefabInstance: {fileID: 0}
  m_PrefabAsset: {fileID: 0}
  m_GameObject: {fileID: 0}
  m_Enabled: 1
  m_EditorHideFlags: 0
  m_Script: {fileID: 11500000, guid: 39b1bcef867341e38cc022a85ce19002, type: 3}
  m_Name: SeaShantySpell
  m_EditorClassIdentifier: 
  serializationData:
    SerializedFormat: 2
    SerializedBytes: 
    ReferencedUnityObjects:
    - {fileID: 21300000, guid: 9b99007c91b0a424eb9fbc7fefa47925, type: 3}
    - {fileID: -4673587064400826278, guid: a72bef3b650102847b5241edbb564c86, type: 3}
    SerializedBytesString: 
    Prefab: {fileID: 0}
    PrefabModificationsReferencedUnityObjects: []
    PrefabModifications: []
    SerializationNodes:
    - Name: StatusEffectIcons
      Entry: 7
      Data: 0|SpellConfig+StatusIcon, Assembly-CSharp
    - Name: IconForSelf
      Entry: 6
      Data: 
    - Name: IconForOthers
      Entry: 10
      Data: 0
    - Name: 
      Entry: 8
      Data: 
    - Name: Executor
      Entry: 7
      Data: 1|SpellExecutor, Assembly-CSharp
    - Name: _spellFxCreator
      Entry: 7
      Data: 2|BaseSpellFXCreator, Assembly-CSharp
    - Name: UsePositionInKey
      Entry: 5
      Data: false
    - Name: _invisibleForEnemies
      Entry: 5
      Data: false
    - Name: _actorIsContainer
      Entry: 5
      Data: false
    - Name: _placementType
      Entry: 3
      Data: 0
    - Name: _spellFxUnitRef
      Entry: 10
      Data: 1
    - Name: _secondaryFxUnitRef
      Entry: 6
      Data: 
    - Name: 
      Entry: 8
      Data: 
    - Name: _statusEffectExecutor
      Entry: 7
      Data: 3|StatusEffectExecutor, Assembly-CSharp
    - Name: _actor
      Entry: 6
      Data: 
    - Name: _targets
      Entry: 7
      Data: 4|Selectors.TargetsSelector, Assembly-CSharp
    - Name: _targetType
      Entry: 3
      Data: 1
    - Name: _inAoeArea
      Entry: 5
      Data: true
    - Name: _exclude
      Entry: 6
      Data: 
    - Name: 
      Entry: 8
      Data: 
    - Name: _applyByCondition
      Entry: 5
      Data: false
    - Name: 
      Entry: 8
      Data: 
    - Name: _animationDelay
      Entry: 4
      Data: 0
    - Name: _spellActions
      Entry: 7
      Data: 5|System.Collections.Generic.List`1[[SpellActions+ISpellAction, Assembly-CSharp]],
        mscorlib
    - Name: 
      Entry: 12
      Data: 2
    - Name: 
      Entry: 7
      Data: 6|SpellActions+NegativeEffectsRemoveAction, Assembly-CSharp
    - Name: ApplyDelay
      Entry: 4
      Data: 0
    - Name: 
      Entry: 8
      Data: 
    - Name: 
      Entry: 7
      Data: 7|SpellActions+DamageModifierAction, Assembly-CSharp
    - Name: ApplyDelay
      Entry: 4
      Data: 0
    - Name: _actors
      Entry: 7
      Data: 8|Selectors.TargetsSelector, Assembly-CSharp
    - Name: _targetType
      Entry: 3
      Data: 1
    - Name: _inAoeArea
      Entry: 5
      Data: true
    - Name: _exclude
      Entry: 6
      Data: 
    - Name: 
      Entry: 8
      Data: 
    - Name: _duration
      Entry: 3
      Data: 3
    - Name: ValueType
      Entry: 3
      Data: 0
    - Name: _percent
      Entry: 4
      Data: 0.3
    - Name: _value
      Entry: 3
      Data: 0
    - Name: _damageType
      Entry: 3
      Data: 0
    - Name: _endCondition
      Entry: 3
      Data: 0
    - Name: 
      Entry: 8
      Data: 
    - Name: 
      Entry: 13
      Data: 
    - Name: 
      Entry: 8
      Data: 
    - Name: 
      Entry: 8
      Data: 
  Icon: {fileID: 21300000, guid: 51f82c7d1dc3d2d47be2a232227ba821, type: 3}
  Name: Sea Shanty
  Owner: {fileID: 11400000, guid: 6798523b31f68df4cbdcac792e0c8f44, type: 2}
  Description: "\u0413\u0435\u0440\u043E\u0438 \u0432 \u043E\u0431\u043B\u0430\u0441\u0442\u0438
    \u0438\u0437\u043B\u0435\u0447\u0438\u0432\u0430\u044E\u0442\u0441\u044F \u043E\u0442
    \u0442\u0435\u043A\u0443\u0449\u0438\u0445 \u043D\u0435\u0434\u0443\u0433\u043E\u0432
    (\u043B\u044E\u0431\u044B\u0435 \u0434\u0435\u0431\u0430\u0444\u0444\u044B) \u0438
    \u0432 \u0442\u0435\u0447\u0435\u043D\u0438\u0435 3 \u0440\u0430\u0443\u043D\u0434\u043E\u0432
    \u043F\u043E\u043B\u0443\u0447\u0430\u044E\u0442 \u043D\u0430 30% \u043C\u0435\u043D\u044C\u0448\u0435
    \u0443\u0440\u043E\u043D\u0430"
  ExecuteType: 0
  Cooldown: 3
  AOESettings:
    Icon: {fileID: 21300000, guid: d1e2225d4a5715b468d9a2c539423bfc, type: 3}
    Layout: {fileID: -3010229783382251720, guid: 0a88e24516951664898534c90d5ee0d3, type: 3}
    PlacementArea: 0
    AllowedPlacementOn: 0
    IsRandom: 0
    CountOnPlayerField: 0
    CountOnEnemyField: 0
    CellRef: {fileID: 3242356318692693192, guid: 4209bb3c494a8fd448fd73311f97f077, type: 3}
    AdditionalAreaOnOppositeSide:
      Layout: {fileID: 0}
      IsRandom: 0
      Count: 0
