%YAML 1.1
%TAG !u! tag:unity3d.com,2011:
--- !u!114 &11400000
MonoBehaviour:
  m_ObjectHideFlags: 0
  m_CorrespondingSourceObject: {fileID: 0}
  m_PrefabInstance: {fileID: 0}
  m_PrefabAsset: {fileID: 0}
  m_GameObject: {fileID: 0}
  m_Enabled: 1
  m_EditorHideFlags: 0
  m_Script: {fileID: 11500000, guid: 39b1bcef867341e38cc022a85ce19002, type: 3}
  m_Name: ForbiddenMagicSpell
  m_EditorClassIdentifier: 
  serializationData:
    SerializedFormat: 2
    SerializedBytes: 
    ReferencedUnityObjects:
    - {fileID: 625975156173535389, guid: 9436a33514633bc4789bdce14e83f5b9, type: 3}
    SerializedBytesString: 
    Prefab: {fileID: 0}
    PrefabModificationsReferencedUnityObjects: []
    PrefabModifications: []
    SerializationNodes:
    - Name: StatusEffectIcons
      Entry: 6
      Data: 
    - Name: Executor
      Entry: 7
      Data: 0|SpellExecutor, Assembly-CSharp
    - Name: _spellFxCreator
      Entry: 7
      Data: 1|BaseSpellFXCreator, Assembly-CSharp
    - Name: UsePositionInKey
      Entry: 5
      Data: false
    - Name: _invisibleForEnemies
      Entry: 5
      Data: false
    - Name: _actorIsContainer
      Entry: 5
      Data: false
    - Name: _placementType
      Entry: 3
      Data: 0
    - Name: _spellFxUnitRef
      Entry: 10
      Data: 0
    - Name: _secondaryFxUnitRef
      Entry: 6
      Data: 
    - Name: 
      Entry: 8
      Data: 
    - Name: _statusEffectExecutor
      Entry: 7
      Data: 2|StatusEffectExecutor, Assembly-CSharp
    - Name: _actor
      Entry: 6
      Data: 
    - Name: _targets
      Entry: 6
      Data: 
    - Name: _applyByCondition
      Entry: 5
      Data: false
    - Name: 
      Entry: 8
      Data: 
    - Name: _animationDelay
      Entry: 4
      Data: 0
    - Name: _spellActions
      Entry: 7
      Data: 3|System.Collections.Generic.List`1[[SpellActions+ISpellAction, Assembly-CSharp]],
        mscorlib
    - Name: 
      Entry: 12
      Data: 1
    - Name: 
      Entry: 7
      Data: 4|SpellActions+CurseOfCellsAction, Assembly-CSharp
    - Name: ApplyDelay
      Entry: 4
      Data: 0
    - Name: _fieldPartType
      Entry: 3
      Data: 0
    - Name: _duration
      Entry: 3
      Data: 1
    - Name: 
      Entry: 8
      Data: 
    - Name: 
      Entry: 13
      Data: 
    - Name: 
      Entry: 8
      Data: 
    - Name: 
      Entry: 8
      Data: 
  Icon: {fileID: 21300000, guid: 58535d17c75b6bf49b46881d160aad6d, type: 3}
  Name: Forbidden Magic
  Owner: {fileID: 11400000, guid: 0052d2c6dbcd8724cb228411e78852da, type: 2}
  Description: "\u041F\u0440\u043E\u043A\u043B\u0438\u043D\u0430\u0435\u0442 3 \u0441\u043B\u0443\u0447\u0430\u0439\u043D\u044B\u0435
    \u043A\u043B\u0435\u0442\u043A\u0438 \u043D\u0430 \u043F\u043E\u043B\u0435 \u0431\u043E\u044F
    (\u043E\u0431\u0435 \u0441\u0442\u043E\u0440\u043E\u043D\u044B)"
  ExecuteType: 0
  Cooldown: 2
  AOESettings:
    Icon: {fileID: 21300000, guid: b6a238f11f2d4984e92e6a7bd0e1d8d4, type: 3}
    Layout: {fileID: -3010229783382251720, guid: 6ab234e505c72054b8909e6b81446e97, type: 3}
    PlacementArea: 2
    AllowedPlacementOn: 0
    IsRandom: 1
    CountOnPlayerField: 3
    CountOnEnemyField: 3
    CellRef: {fileID: 3242356318692693192, guid: 4209bb3c494a8fd448fd73311f97f077, type: 3}
    AdditionalAreaOnOppositeSide:
      Layout: {fileID: 0}
      IsRandom: 0
      Count: 0
