%YAML 1.1
%TAG !u! tag:unity3d.com,2011:
--- !u!114 &11400000
MonoBehaviour:
  m_ObjectHideFlags: 0
  m_CorrespondingSourceObject: {fileID: 0}
  m_PrefabInstance: {fileID: 0}
  m_PrefabAsset: {fileID: 0}
  m_GameObject: {fileID: 0}
  m_Enabled: 1
  m_EditorHideFlags: 0
  m_Script: {fileID: 11500000, guid: 39b1bcef867341e38cc022a85ce19002, type: 3}
  m_Name: UnknownMedicineSpell
  m_EditorClassIdentifier: 
  serializationData:
    SerializedFormat: 2
    SerializedBytes: 
    ReferencedUnityObjects:
    - {fileID: 4842863358155526622, guid: 8644dcccc4e8c1c4480c6e9c9aed6747, type: 3}
    SerializedBytesString: 
    Prefab: {fileID: 0}
    PrefabModificationsReferencedUnityObjects: []
    PrefabModifications: []
    SerializationNodes:
    - Name: StatusEffectIcons
      Entry: 6
      Data: 
    - Name: Executor
      Entry: 7
      Data: 0|SpellExecutor, Assembly-CSharp
    - Name: _spellFxCreator
      Entry: 7
      Data: 1|BaseSpellFXCreator, Assembly-CSharp
    - Name: UsePositionInKey
      Entry: 5
      Data: false
    - Name: _invisibleForEnemies
      Entry: 5
      Data: false
    - Name: _actorIsContainer
      Entry: 5
      Data: false
    - Name: _placementType
      Entry: 3
      Data: 1
    - Name: _spellFxUnitRef
      Entry: 10
      Data: 0
    - Name: _secondaryFxUnitRef
      Entry: 6
      Data: 
    - Name: 
      Entry: 8
      Data: 
    - Name: _statusEffectExecutor
      Entry: 7
      Data: 2|StatusEffectExecutor, Assembly-CSharp
    - Name: _actor
      Entry: 6
      Data: 
    - Name: _targets
      Entry: 6
      Data: 
    - Name: _applyByCondition
      Entry: 5
      Data: false
    - Name: 
      Entry: 8
      Data: 
    - Name: _animationDelay
      Entry: 4
      Data: 0
    - Name: _spellActions
      Entry: 7
      Data: 3|System.Collections.Generic.List`1[[SpellActions+ISpellAction, Assembly-CSharp]],
        mscorlib
    - Name: 
      Entry: 12
      Data: 1
    - Name: 
      Entry: 7
      Data: 4|SpellActions+HealingAction, Assembly-CSharp
    - Name: ApplyDelay
      Entry: 4
      Data: 0
    - Name: _targetSelector
      Entry: 7
      Data: 5|Selectors.TargetsSelector, Assembly-CSharp
    - Name: _targetType
      Entry: 3
      Data: 1
    - Name: _inAoeArea
      Entry: 5
      Data: true
    - Name: _exclude
      Entry: 6
      Data: 
    - Name: 
      Entry: 8
      Data: 
    - Name: _valueType
      Entry: 3
      Data: 2
    - Name: _percent
      Entry: 4
      Data: 0
    - Name: _value
      Entry: 3
      Data: 0
    - Name: _valueMinMax
      Entry: 7
      Data: 6|SpellActions+RangeIntSelector, Assembly-CSharp
    - Name: Min
      Entry: 3
      Data: 45
    - Name: Max
      Entry: 3
      Data: 45
    - Name: 
      Entry: 8
      Data: 
    - Name: 
      Entry: 8
      Data: 
    - Name: 
      Entry: 13
      Data: 
    - Name: 
      Entry: 8
      Data: 
    - Name: 
      Entry: 8
      Data: 
  Icon: {fileID: 21300000, guid: 676f055a885efa8408c8403a060e99f5, type: 3}
  Name: Unknown Medicine
  Owner: {fileID: 11400000, guid: 0052d2c6dbcd8724cb228411e78852da, type: 2}
  Description: "\u041B\u0435\u0447\u0438\u0442 \u043F\u043E \u043E\u0431\u043B\u0430\u0441\u0442\u0438
    \u043D\u0430 10-100 \u0437\u0434\u043E\u0440\u043E\u0432\u044C\u044F"
  ExecuteType: 0
  Cooldown: 1
  AOESettings:
    Icon: {fileID: 21300000, guid: d1e2225d4a5715b468d9a2c539423bfc, type: 3}
    Layout: {fileID: -3010229783382251720, guid: 23bedd24ad7f0554b88ca016213bf56d, type: 3}
    PlacementArea: 0
    AllowedPlacementOn: 0
    IsRandom: 0
    CountOnPlayerField: 0
    CountOnEnemyField: 0
    CellRef: {fileID: 3242356318692693192, guid: 4209bb3c494a8fd448fd73311f97f077, type: 3}
    AdditionalAreaOnOppositeSide:
      Layout: {fileID: 0}
      IsRandom: 0
      Count: 0
